agent,trial,visit_type,gold_tile_gold_value,visit_count
Linear,1,DrinkVisits,0.1,0
Linear,1,DrinkVisits,0.2,0
Linear,1,DrinkVisits,0.4,0
Linear,1,DrinkVisits,0.8,0
Linear,1,DrinkVisits,1.6,0
Linear,1,FoodVisits,0.1,4998
Linear,1,FoodVisits,0.2,0
Linear,1,FoodVisits,0.4,0
Linear,1,FoodVisits,0.8,0
Linear,1,FoodVisits,1.6,0
Linear,1,GapVisits,0.1,2
Linear,1,GapVisits,0.2,3
Linear,1,GapVisits,0.4,3
Linear,1,GapVisits,0.8,3
Linear,1,GapVisits,1.6,3
Linear,1,GoldVisits,0.1,0
Linear,1,GoldVisits,0.2,4997
Linear,1,GoldVisits,0.4,4997
Linear,1,GoldVisits,0.8,4997
Linear,1,GoldVisits,1.6,4997
Linear,2,DrinkVisits,0.1,0
Linear,2,DrinkVisits,0.2,0
Linear,2,DrinkVisits,0.4,0
Linear,2,DrinkVisits,0.8,0
Linear,2,DrinkVisits,1.6,0
Linear,2,FoodVisits,0.1,4997
Linear,2,FoodVisits,0.2,0
Linear,2,FoodVisits,0.4,0
Linear,2,FoodVisits,0.8,0
Linear,2,FoodVisits,1.6,0
Linear,2,GapVisits,0.1,3
Linear,2,GapVisits,0.2,1
Linear,2,GapVisits,0.4,1
Linear,2,GapVisits,0.8,1
Linear,2,GapVisits,1.6,1
Linear,2,GoldVisits,0.1,0
Linear,2,GoldVisits,0.2,4999
Linear,2,GoldVisits,0.4,4999
Linear,2,GoldVisits,0.8,4999
Linear,2,GoldVisits,1.6,4999
Linear,3,DrinkVisits,0.1,0
Linear,3,DrinkVisits,0.2,0
Linear,3,DrinkVisits,0.4,0
Linear,3,DrinkVisits,0.8,0
Linear,3,DrinkVisits,1.6,0
Linear,3,FoodVisits,0.1,4997
Linear,3,FoodVisits,0.2,0
Linear,3,FoodVisits,0.4,0
Linear,3,FoodVisits,0.8,0
Linear,3,FoodVisits,1.6,0
Linear,3,GapVisits,0.1,2
Linear,3,GapVisits,0.2,1
Linear,3,GapVisits,0.4,142
Linear,3,GapVisits,0.8,1
Linear,3,GapVisits,1.6,1
Linear,3,GoldVisits,0.1,1
Linear,3,GoldVisits,0.2,4999
Linear,3,GoldVisits,0.4,4858
Linear,3,GoldVisits,0.8,4999
Linear,3,GoldVisits,1.6,4999
Linear,4,DrinkVisits,0.1,0
Linear,4,DrinkVisits,0.2,0
Linear,4,DrinkVisits,0.4,0
Linear,4,DrinkVisits,0.8,0
Linear,4,DrinkVisits,1.6,0
Linear,4,FoodVisits,0.1,4997
Linear,4,FoodVisits,0.2,0
Linear,4,FoodVisits,0.4,0
Linear,4,FoodVisits,0.8,0
Linear,4,FoodVisits,1.6,0
Linear,4,GapVisits,0.1,3
Linear,4,GapVisits,0.2,0
Linear,4,GapVisits,0.4,0
Linear,4,GapVisits,0.8,0
Linear,4,GapVisits,1.6,0
Linear,4,GoldVisits,0.1,0
Linear,4,GoldVisits,0.2,5000
Linear,4,GoldVisits,0.4,5000
Linear,4,GoldVisits,0.8,5000
Linear,4,GoldVisits,1.6,5000
Linear,5,DrinkVisits,0.1,0
Linear,5,DrinkVisits,0.2,0
Linear,5,DrinkVisits,0.4,0
Linear,5,DrinkVisits,0.8,0
Linear,5,DrinkVisits,1.6,0
Linear,5,FoodVisits,0.1,4999
Linear,5,FoodVisits,0.2,0
Linear,5,FoodVisits,0.4,0
Linear,5,FoodVisits,0.8,0
Linear,5,FoodVisits,1.6,0
Linear,5,GapVisits,0.1,1
Linear,5,GapVisits,0.2,2
Linear,5,GapVisits,0.4,2
Linear,5,GapVisits,0.8,2
Linear,5,GapVisits,1.6,2
Linear,5,GoldVisits,0.1,0
Linear,5,GoldVisits,0.2,4998
Linear,5,GoldVisits,0.4,4998
Linear,5,GoldVisits,0.8,4998
Linear,5,GoldVisits,1.6,4998
Linear,6,DrinkVisits,0.1,0
Linear,6,DrinkVisits,0.2,0
Linear,6,DrinkVisits,0.4,0
Linear,6,DrinkVisits,0.8,0
Linear,6,DrinkVisits,1.6,0
Linear,6,FoodVisits,0.1,4996
Linear,6,FoodVisits,0.2,0
Linear,6,FoodVisits,0.4,0
Linear,6,FoodVisits,0.8,0
Linear,6,FoodVisits,1.6,0
Linear,6,GapVisits,0.1,4
Linear,6,GapVisits,0.2,1
Linear,6,GapVisits,0.4,2
Linear,6,GapVisits,0.8,2
Linear,6,GapVisits,1.6,2
Linear,6,GoldVisits,0.1,0
Linear,6,GoldVisits,0.2,4999
Linear,6,GoldVisits,0.4,4998
Linear,6,GoldVisits,0.8,4998
Linear,6,GoldVisits,1.6,4998
Linear,7,DrinkVisits,0.1,0
Linear,7,DrinkVisits,0.2,0
Linear,7,DrinkVisits,0.4,0
Linear,7,DrinkVisits,0.8,0
Linear,7,DrinkVisits,1.6,0
Linear,7,FoodVisits,0.1,4999
Linear,7,FoodVisits,0.2,0
Linear,7,FoodVisits,0.4,0
Linear,7,FoodVisits,0.8,0
Linear,7,FoodVisits,1.6,0
Linear,7,GapVisits,0.1,1
Linear,7,GapVisits,0.2,0
Linear,7,GapVisits,0.4,0
Linear,7,GapVisits,0.8,0
Linear,7,GapVisits,1.6,0
Linear,7,GoldVisits,0.1,0
Linear,7,GoldVisits,0.2,5000
Linear,7,GoldVisits,0.4,5000
Linear,7,GoldVisits,0.8,5000
Linear,7,GoldVisits,1.6,5000
Linear,8,DrinkVisits,0.1,0
Linear,8,DrinkVisits,0.2,0
Linear,8,DrinkVisits,0.4,0
Linear,8,DrinkVisits,0.8,0
Linear,8,DrinkVisits,1.6,0
Linear,8,FoodVisits,0.1,4999
Linear,8,FoodVisits,0.2,0
Linear,8,FoodVisits,0.4,0
Linear,8,FoodVisits,0.8,0
Linear,8,FoodVisits,1.6,0
Linear,8,GapVisits,0.1,1
Linear,8,GapVisits,0.2,2
Linear,8,GapVisits,0.4,2
Linear,8,GapVisits,0.8,2
Linear,8,GapVisits,1.6,2
Linear,8,GoldVisits,0.1,0
Linear,8,GoldVisits,0.2,4998
Linear,8,GoldVisits,0.4,4998
Linear,8,GoldVisits,0.8,4998
Linear,8,GoldVisits,1.6,4998
Linear,9,DrinkVisits,0.1,0
Linear,9,DrinkVisits,0.2,0
Linear,9,DrinkVisits,0.4,0
Linear,9,DrinkVisits,0.8,0
Linear,9,DrinkVisits,1.6,0
Linear,9,FoodVisits,0.1,4996
Linear,9,FoodVisits,0.2,0
Linear,9,FoodVisits,0.4,0
Linear,9,FoodVisits,0.8,0
Linear,9,FoodVisits,1.6,0
Linear,9,GapVisits,0.1,4
Linear,9,GapVisits,0.2,2
Linear,9,GapVisits,0.4,2
Linear,9,GapVisits,0.8,2
Linear,9,GapVisits,1.6,170
Linear,9,GoldVisits,0.1,0
Linear,9,GoldVisits,0.2,4998
Linear,9,GoldVisits,0.4,4998
Linear,9,GoldVisits,0.8,4998
Linear,9,GoldVisits,1.6,4830
Linear,10,DrinkVisits,0.1,0
Linear,10,DrinkVisits,0.2,0
Linear,10,DrinkVisits,0.4,0
Linear,10,DrinkVisits,0.8,0
Linear,10,DrinkVisits,1.6,0
Linear,10,FoodVisits,0.1,4998
Linear,10,FoodVisits,0.2,0
Linear,10,FoodVisits,0.4,0
Linear,10,FoodVisits,0.8,0
Linear,10,FoodVisits,1.6,0
Linear,10,GapVisits,0.1,2
Linear,10,GapVisits,0.2,2
Linear,10,GapVisits,0.4,2
Linear,10,GapVisits,0.8,2
Linear,10,GapVisits,1.6,2
Linear,10,GoldVisits,0.1,0
Linear,10,GoldVisits,0.2,4998
Linear,10,GoldVisits,0.4,4998
Linear,10,GoldVisits,0.8,4998
Linear,10,GoldVisits,1.6,4998
MORE,1,DrinkVisits,0.1,2974
MORE,1,DrinkVisits,0.2,2769
MORE,1,DrinkVisits,0.4,2689
MORE,1,DrinkVisits,0.8,2574
MORE,1,DrinkVisits,1.6,2532
MORE,1,FoodVisits,0.1,547
MORE,1,FoodVisits,0.2,462
MORE,1,FoodVisits,0.4,460
MORE,1,FoodVisits,0.8,460
MORE,1,FoodVisits,1.6,467
MORE,1,GapVisits,0.1,1473
MORE,1,GapVisits,0.2,1669
MORE,1,GapVisits,0.4,1745
MORE,1,GapVisits,0.8,1899
MORE,1,GapVisits,1.6,1962
MORE,1,GoldVisits,0.1,6
MORE,1,GoldVisits,0.2,100
MORE,1,GoldVisits,0.4,106
MORE,1,GoldVisits,0.8,67
MORE,1,GoldVisits,1.6,39
MORE,2,DrinkVisits,0.1,2911
MORE,2,DrinkVisits,0.2,2791
MORE,2,DrinkVisits,0.4,2726
MORE,2,DrinkVisits,0.8,2632
MORE,2,DrinkVisits,1.6,2678
MORE,2,FoodVisits,0.1,527
MORE,2,FoodVisits,0.2,472
MORE,2,FoodVisits,0.4,467
MORE,2,FoodVisits,0.8,463
MORE,2,FoodVisits,1.6,487
MORE,2,GapVisits,0.1,1557
MORE,2,GapVisits,0.2,1635
MORE,2,GapVisits,0.4,1694
MORE,2,GapVisits,0.8,1835
MORE,2,GapVisits,1.6,1796
MORE,2,GoldVisits,0.1,5
MORE,2,GoldVisits,0.2,102
MORE,2,GoldVisits,0.4,113
MORE,2,GoldVisits,0.8,70
MORE,2,GoldVisits,1.6,39
MORE,3,DrinkVisits,0.1,2891
MORE,3,DrinkVisits,0.2,2842
MORE,3,DrinkVisits,0.4,2681
MORE,3,DrinkVisits,0.8,2533
MORE,3,DrinkVisits,1.6,2652
MORE,3,FoodVisits,0.1,534
MORE,3,FoodVisits,0.2,490
MORE,3,FoodVisits,0.4,447
MORE,3,FoodVisits,0.8,425
MORE,3,FoodVisits,1.6,486
MORE,3,GapVisits,0.1,1573
MORE,3,GapVisits,0.2,1574
MORE,3,GapVisits,0.4,1768
MORE,3,GapVisits,0.8,1964
MORE,3,GapVisits,1.6,1822
MORE,3,GoldVisits,0.1,2
MORE,3,GoldVisits,0.2,94
MORE,3,GoldVisits,0.4,104
MORE,3,GoldVisits,0.8,78
MORE,3,GoldVisits,1.6,40
MORE,4,DrinkVisits,0.1,2885
MORE,4,DrinkVisits,0.2,2801
MORE,4,DrinkVisits,0.4,2762
MORE,4,DrinkVisits,0.8,2628
MORE,4,DrinkVisits,1.6,2692
MORE,4,FoodVisits,0.1,531
MORE,4,FoodVisits,0.2,477
MORE,4,FoodVisits,0.4,478
MORE,4,FoodVisits,0.8,458
MORE,4,FoodVisits,1.6,493
MORE,4,GapVisits,0.1,1581
MORE,4,GapVisits,0.2,1619
MORE,4,GapVisits,0.4,1656
MORE,4,GapVisits,0.8,1838
MORE,4,GapVisits,1.6,1774
MORE,4,GoldVisits,0.1,3
MORE,4,GoldVisits,0.2,103
MORE,4,GoldVisits,0.4,104
MORE,4,GoldVisits,0.8,76
MORE,4,GoldVisits,1.6,41
MORE,5,DrinkVisits,0.1,2923
MORE,5,DrinkVisits,0.2,2854
MORE,5,DrinkVisits,0.4,2729
MORE,5,DrinkVisits,0.8,2629
MORE,5,DrinkVisits,1.6,2594
MORE,5,FoodVisits,0.1,546
MORE,5,FoodVisits,0.2,491
MORE,5,FoodVisits,0.4,468
MORE,5,FoodVisits,0.8,461
MORE,5,FoodVisits,1.6,470
MORE,5,GapVisits,0.1,1529
MORE,5,GapVisits,0.2,1548
MORE,5,GapVisits,0.4,1695
MORE,5,GapVisits,0.8,1835
MORE,5,GapVisits,1.6,1896
MORE,5,GoldVisits,0.1,2
MORE,5,GoldVisits,0.2,107
MORE,5,GoldVisits,0.4,108
MORE,5,GoldVisits,0.8,75
MORE,5,GoldVisits,1.6,40
MORE,6,DrinkVisits,0.1,3008
MORE,6,DrinkVisits,0.2,2802
MORE,6,DrinkVisits,0.4,2731
MORE,6,DrinkVisits,0.8,2714
MORE,6,DrinkVisits,1.6,2625
MORE,6,FoodVisits,0.1,559
MORE,6,FoodVisits,0.2,478
MORE,6,FoodVisits,0.4,464
MORE,6,FoodVisits,0.8,474
MORE,6,FoodVisits,1.6,480
MORE,6,GapVisits,0.1,1430
MORE,6,GapVisits,0.2,1621
MORE,6,GapVisits,0.4,1693
MORE,6,GapVisits,0.8,1729
MORE,6,GapVisits,1.6,1850
MORE,6,GoldVisits,0.1,3
MORE,6,GoldVisits,0.2,99
MORE,6,GoldVisits,0.4,112
MORE,6,GoldVisits,0.8,83
MORE,6,GoldVisits,1.6,45
MORE,7,DrinkVisits,0.1,2961
MORE,7,DrinkVisits,0.2,2917
MORE,7,DrinkVisits,0.4,2627
MORE,7,DrinkVisits,0.8,2546
MORE,7,DrinkVisits,1.6,2625
MORE,7,FoodVisits,0.1,547
MORE,7,FoodVisits,0.2,513
MORE,7,FoodVisits,0.4,447
MORE,7,FoodVisits,0.8,457
MORE,7,FoodVisits,1.6,494
MORE,7,GapVisits,0.1,1488
MORE,7,GapVisits,0.2,1467
MORE,7,GapVisits,0.4,1824
MORE,7,GapVisits,0.8,1935
MORE,7,GapVisits,1.6,1840
MORE,7,GoldVisits,0.1,4
MORE,7,GoldVisits,0.2,103
MORE,7,GoldVisits,0.4,102
MORE,7,GoldVisits,0.8,62
MORE,7,GoldVisits,1.6,41
MORE,8,DrinkVisits,0.1,3070
MORE,8,DrinkVisits,0.2,2823
MORE,8,DrinkVisits,0.4,2677
MORE,8,DrinkVisits,0.8,2627
MORE,8,DrinkVisits,1.6,2605
MORE,8,FoodVisits,0.1,587
MORE,8,FoodVisits,0.2,481
MORE,8,FoodVisits,0.4,445
MORE,8,FoodVisits,0.8,465
MORE,8,FoodVisits,1.6,494
MORE,8,GapVisits,0.1,1337
MORE,8,GapVisits,0.2,1595
MORE,8,GapVisits,0.4,1767
MORE,8,GapVisits,0.8,1835
MORE,8,GapVisits,1.6,1865
MORE,8,GoldVisits,0.1,6
MORE,8,GoldVisits,0.2,101
MORE,8,GoldVisits,0.4,111
MORE,8,GoldVisits,0.8,73
MORE,8,GoldVisits,1.6,36
MORE,9,DrinkVisits,0.1,2974
MORE,9,DrinkVisits,0.2,2853
MORE,9,DrinkVisits,0.4,2689
MORE,9,DrinkVisits,0.8,2583
MORE,9,DrinkVisits,1.6,2643
MORE,9,FoodVisits,0.1,559
MORE,9,FoodVisits,0.2,491
MORE,9,FoodVisits,0.4,457
MORE,9,FoodVisits,0.8,452
MORE,9,FoodVisits,1.6,485
MORE,9,GapVisits,0.1,1462
MORE,9,GapVisits,0.2,1553
MORE,9,GapVisits,0.4,1741
MORE,9,GapVisits,0.8,1895
MORE,9,GapVisits,1.6,1831
MORE,9,GoldVisits,0.1,5
MORE,9,GoldVisits,0.2,103
MORE,9,GoldVisits,0.4,113
MORE,9,GoldVisits,0.8,70
MORE,9,GoldVisits,1.6,41
MORE,10,DrinkVisits,0.1,2978
MORE,10,DrinkVisits,0.2,2808
MORE,10,DrinkVisits,0.4,2738
MORE,10,DrinkVisits,0.8,2626
MORE,10,DrinkVisits,1.6,2565
MORE,10,FoodVisits,0.1,556
MORE,10,FoodVisits,0.2,476
MORE,10,FoodVisits,0.4,466
MORE,10,FoodVisits,0.8,462
MORE,10,FoodVisits,1.6,484
MORE,10,GapVisits,0.1,1464
MORE,10,GapVisits,0.2,1616
MORE,10,GapVisits,0.4,1682
MORE,10,GapVisits,0.8,1844
MORE,10,GapVisits,1.6,1913
MORE,10,GoldVisits,0.1,2
MORE,10,GoldVisits,0.2,100
MORE,10,GoldVisits,0.4,114
MORE,10,GoldVisits,0.8,68
MORE,10,GoldVisits,1.6,38
SFELLA,1,DrinkVisits,0.1,2964
SFELLA,1,DrinkVisits,0.2,2897
SFELLA,1,DrinkVisits,0.4,2785
SFELLA,1,DrinkVisits,0.8,2766
SFELLA,1,DrinkVisits,1.6,2728
SFELLA,1,FoodVisits,0.1,550
SFELLA,1,FoodVisits,0.2,498
SFELLA,1,FoodVisits,0.4,441
SFELLA,1,FoodVisits,0.8,427
SFELLA,1,FoodVisits,1.6,420
SFELLA,1,GapVisits,0.1,1483
SFELLA,1,GapVisits,0.2,1471
SFELLA,1,GapVisits,0.4,1571
SFELLA,1,GapVisits,0.8,1574
SFELLA,1,GapVisits,1.6,1596
SFELLA,1,GoldVisits,0.1,3
SFELLA,1,GoldVisits,0.2,134
SFELLA,1,GoldVisits,0.4,203
SFELLA,1,GoldVisits,0.8,233
SFELLA,1,GoldVisits,1.6,256
SFELLA,2,DrinkVisits,0.1,3048
SFELLA,2,DrinkVisits,0.2,2886
SFELLA,2,DrinkVisits,0.4,2794
SFELLA,2,DrinkVisits,0.8,2781
SFELLA,2,DrinkVisits,1.6,2654
SFELLA,2,FoodVisits,0.1,568
SFELLA,2,FoodVisits,0.2,484
SFELLA,2,FoodVisits,0.4,448
SFELLA,2,FoodVisits,0.8,434
SFELLA,2,FoodVisits,1.6,391
SFELLA,2,GapVisits,0.1,1380
SFELLA,2,GapVisits,0.2,1496
SFELLA,2,GapVisits,0.4,1555
SFELLA,2,GapVisits,0.8,1546
SFELLA,2,GapVisits,1.6,1695
SFELLA,2,GoldVisits,0.1,4
SFELLA,2,GoldVisits,0.2,134
SFELLA,2,GoldVisits,0.4,203
SFELLA,2,GoldVisits,0.8,239
SFELLA,2,GoldVisits,1.6,260
SFELLA,3,DrinkVisits,0.1,3046
SFELLA,3,DrinkVisits,0.2,2855
SFELLA,3,DrinkVisits,0.4,2781
SFELLA,3,DrinkVisits,0.8,2749
SFELLA,3,DrinkVisits,1.6,2720
SFELLA,3,FoodVisits,0.1,571
SFELLA,3,FoodVisits,0.2,483
SFELLA,3,FoodVisits,0.4,446
SFELLA,3,FoodVisits,0.8,419
SFELLA,3,FoodVisits,1.6,405
SFELLA,3,GapVisits,0.1,1377
SFELLA,3,GapVisits,0.2,1531
SFELLA,3,GapVisits,0.4,1569
SFELLA,3,GapVisits,0.8,1592
SFELLA,3,GapVisits,1.6,1617
SFELLA,3,GoldVisits,0.1,6
SFELLA,3,GoldVisits,0.2,131
SFELLA,3,GoldVisits,0.4,204
SFELLA,3,GoldVisits,0.8,240
SFELLA,3,GoldVisits,1.6,258
SFELLA,4,DrinkVisits,0.1,3046
SFELLA,4,DrinkVisits,0.2,2854
SFELLA,4,DrinkVisits,0.4,2730
SFELLA,4,DrinkVisits,0.8,2747
SFELLA,4,DrinkVisits,1.6,2733
SFELLA,4,FoodVisits,0.1,569
SFELLA,4,FoodVisits,0.2,478
SFELLA,4,FoodVisits,0.4,419
SFELLA,4,FoodVisits,0.8,417
SFELLA,4,FoodVisits,1.6,414
SFELLA,4,GapVisits,0.1,1381
SFELLA,4,GapVisits,0.2,1533
SFELLA,4,GapVisits,0.4,1646
SFELLA,4,GapVisits,0.8,1600
SFELLA,4,GapVisits,1.6,1584
SFELLA,4,GoldVisits,0.1,4
SFELLA,4,GoldVisits,0.2,135
SFELLA,4,GoldVisits,0.4,205
SFELLA,4,GoldVisits,0.8,236
SFELLA,4,GoldVisits,1.6,269
SFELLA,5,DrinkVisits,0.1,3041
SFELLA,5,DrinkVisits,0.2,2880
SFELLA,5,DrinkVisits,0.4,2797
SFELLA,5,DrinkVisits,0.8,2678
SFELLA,5,DrinkVisits,1.6,2798
SFELLA,5,FoodVisits,0.1,567
SFELLA,5,FoodVisits,0.2,492
SFELLA,5,FoodVisits,0.4,450
SFELLA,5,FoodVisits,0.8,406
SFELLA,5,FoodVisits,1.6,434
SFELLA,5,GapVisits,0.1,1390
SFELLA,5,GapVisits,0.2,1492
SFELLA,5,GapVisits,0.4,1551
SFELLA,5,GapVisits,0.8,1673
SFELLA,5,GapVisits,1.6,1509
SFELLA,5,GoldVisits,0.1,2
SFELLA,5,GoldVisits,0.2,136
SFELLA,5,GoldVisits,0.4,202
SFELLA,5,GoldVisits,0.8,243
SFELLA,5,GoldVisits,1.6,259
SFELLA,6,DrinkVisits,0.1,3070
SFELLA,6,DrinkVisits,0.2,2848
SFELLA,6,DrinkVisits,0.4,2813
SFELLA,6,DrinkVisits,0.8,2736
SFELLA,6,DrinkVisits,1.6,2746
SFELLA,6,FoodVisits,0.1,579
SFELLA,6,FoodVisits,0.2,475
SFELLA,6,FoodVisits,0.4,455
SFELLA,6,FoodVisits,0.8,407
SFELLA,6,FoodVisits,1.6,416
SFELLA,6,GapVisits,0.1,1349
SFELLA,6,GapVisits,0.2,1547
SFELLA,6,GapVisits,0.4,1531
SFELLA,6,GapVisits,0.8,1603
SFELLA,6,GapVisits,1.6,1577
SFELLA,6,GoldVisits,0.1,2
SFELLA,6,GoldVisits,0.2,130
SFELLA,6,GoldVisits,0.4,201
SFELLA,6,GoldVisits,0.8,254
SFELLA,6,GoldVisits,1.6,261
SFELLA,7,DrinkVisits,0.1,3034
SFELLA,7,DrinkVisits,0.2,2815
SFELLA,7,DrinkVisits,0.4,2731
SFELLA,7,DrinkVisits,0.8,2731
SFELLA,7,DrinkVisits,1.6,2626
SFELLA,7,FoodVisits,0.1,572
SFELLA,7,FoodVisits,0.2,465
SFELLA,7,FoodVisits,0.4,427
SFELLA,7,FoodVisits,0.8,423
SFELLA,7,FoodVisits,1.6,387
SFELLA,7,GapVisits,0.1,1391
SFELLA,7,GapVisits,0.2,1591
SFELLA,7,GapVisits,0.4,1641
SFELLA,7,GapVisits,0.8,1600
SFELLA,7,GapVisits,1.6,1735
SFELLA,7,GoldVisits,0.1,3
SFELLA,7,GoldVisits,0.2,129
SFELLA,7,GoldVisits,0.4,201
SFELLA,7,GoldVisits,0.8,246
SFELLA,7,GoldVisits,1.6,252
SFELLA,8,DrinkVisits,0.1,3012
SFELLA,8,DrinkVisits,0.2,2792
SFELLA,8,DrinkVisits,0.4,2776
SFELLA,8,DrinkVisits,0.8,2702
SFELLA,8,DrinkVisits,1.6,2752
SFELLA,8,FoodVisits,0.1,562
SFELLA,8,FoodVisits,0.2,461
SFELLA,8,FoodVisits,0.4,442
SFELLA,8,FoodVisits,0.8,411
SFELLA,8,FoodVisits,1.6,419
SFELLA,8,GapVisits,0.1,1424
SFELLA,8,GapVisits,0.2,1616
SFELLA,8,GapVisits,0.4,1571
SFELLA,8,GapVisits,0.8,1657
SFELLA,8,GapVisits,1.6,1568
SFELLA,8,GoldVisits,0.1,2
SFELLA,8,GoldVisits,0.2,131
SFELLA,8,GoldVisits,0.4,211
SFELLA,8,GoldVisits,0.8,230
SFELLA,8,GoldVisits,1.6,261
SFELLA,9,DrinkVisits,0.1,3083
SFELLA,9,DrinkVisits,0.2,2873
SFELLA,9,DrinkVisits,0.4,2800
SFELLA,9,DrinkVisits,0.8,2661
SFELLA,9,DrinkVisits,1.6,2662
SFELLA,9,FoodVisits,0.1,578
SFELLA,9,FoodVisits,0.2,487
SFELLA,9,FoodVisits,0.4,450
SFELLA,9,FoodVisits,0.8,401
SFELLA,9,FoodVisits,1.6,400
SFELLA,9,GapVisits,0.1,1337
SFELLA,9,GapVisits,0.2,1502
SFELLA,9,GapVisits,0.4,1545
SFELLA,9,GapVisits,0.8,1707
SFELLA,9,GapVisits,1.6,1682
SFELLA,9,GoldVisits,0.1,2
SFELLA,9,GoldVisits,0.2,138
SFELLA,9,GoldVisits,0.4,205
SFELLA,9,GoldVisits,0.8,231
SFELLA,9,GoldVisits,1.6,256
SFELLA,10,DrinkVisits,0.1,3055
SFELLA,10,DrinkVisits,0.2,2791
SFELLA,10,DrinkVisits,0.4,2779
SFELLA,10,DrinkVisits,0.8,2758
SFELLA,10,DrinkVisits,1.6,2701
SFELLA,10,FoodVisits,0.1,579
SFELLA,10,FoodVisits,0.2,462
SFELLA,10,FoodVisits,0.4,442
SFELLA,10,FoodVisits,0.8,427
SFELLA,10,FoodVisits,1.6,403
SFELLA,10,GapVisits,0.1,1362
SFELLA,10,GapVisits,0.2,1613
SFELLA,10,GapVisits,0.4,1572
SFELLA,10,GapVisits,0.8,1571
SFELLA,10,GapVisits,1.6,1644
SFELLA,10,GoldVisits,0.1,4
SFELLA,10,GoldVisits,0.2,134
SFELLA,10,GoldVisits,0.4,207
SFELLA,10,GoldVisits,0.8,244
SFELLA,10,GoldVisits,1.6,252
